{
  "type": "service_account",
  "project_id": "rr2023-110aa",
  "private_key_id": "4430c441fd940e81e4cb43fd50535af1c8ac4519",
  "private_key": "-----BEGIN PRIVATE KEY-----\nMIIEvgIBADANBgkqhkiG9w0BAQEFAASCBKgwggSkAgEAAoIBAQDfF+dNcuL4Rg+Y\nSve6Iu5Rbtso34333bMplkDVHN8ch9VGy6n4JWiMGNQxnGFN4Eb/0v1KxqXtuN4m\nbGSA0ddKTJl1pRba9yFcAmtK18pWOWVod4XgDlEM+AeVPJX+ZQQiC/D12l11aJhg\n1UM5ftzDvo8x28mmGQWVLI0tUNXuZnST+vuktP4Z/e5bjDmG8sWPEFbua1bgWU/6\noSt8Fy3R0TQHnG//NLjitrRjT9/YFK27x2U+F/kUR7K8Hl/n/X3P1iQe0625FQDl\nC/8hbL6qBR5TS19pxMsQ45fpo0YxkkMQAEg4P+D3094On//gXxCI7YonY7+jshjX\nDEBnfXpjAgMBAAECggEAaVKDpJDEjqmk2yUpZvruwAsx9E32XDqSRuPkn7gNrQ6D\npfSovboLbXibVQCa/4UOf+BALHk0BNLuLf2mRRrMJQuct2nFLILXgPSzapYNtD9M\nnNEwpuKbaR//lHkR5xQRq3EvxSHeVXuX1L9aCV7XIqJoQAWfYYcWl6J81BQBq5ZZ\nc9LE7M7MtfNTIZtNRuUzhEj1xpBUXD3cyk+jqL5E93QuteHLax5mAcWgOyQ6SsuB\nl4ackKdVGV/q0luU/oLByojR2gEGKkL1MuVgbAZSVra3RljTypGXZ7FSkcFKnVqe\n0fSgvAZCKVfjruCzOU5ma4atvRGpXDmk2ZuJYjMWwQKBgQDwhh7EVx2pkJoVo6Br\nnXZpeObE8Xpl/msjKtkr2qODS3aZ/1zby6EI+W2nxaopMig8knwicFZLvpGh+lZs\nhSLJN7fyZCXzkB8aZb6x3Do0cUJaKuG5Jnz2jJo2i+fpnyTJc9biALVSd8APZunq\nP014yclXoNekovggAsSeiOEVyQKBgQDtcqt1fpvrBPir9uqWydu5LJkFh/6V5WMY\nhazPZ/sMiraO9gITQCvrv3zcjblk15YXLjDIfF+hnOSY5XjbG/bNPYMAn79dulfn\nLU0TaAZvowY7sWXCbspx6YWyOmLb55t6O+wVKJ+FiNS3mOGFxqcXUSc7VM75GLrB\n5UFJQaGUywKBgQDleTBVZj/4jOtVBd2BjqNwkVaqQzDhqlARJ0o3Gsux8gdfeVDg\nqnAjHcXOsTldQGs/Dwq72K2cal6LSUm3E3ZSv4QSEBZdP/1MtBGxo0ksy3ngiNT+\nTogeuZpPvD8wlxMD2C8FRGO6IGHuz+MQCAEj4nDj16Klgo50C/AGyNTmcQKBgHYD\nE+xlbKC169Gr+pPO54F1BOiW2pUtWL8LUQQULdXh6zHKWuWucyXMGgaT+ZyA+Xuz\n3VMHXZA5JfRHuHVNxK/k7oMU4kt3HdEr1q7aeLhrUeHBHU4xOjS7V1NpaVDaH4/0\n0DUD56S6iN5nAU83mDwifVkjoWp0O/26L2R1VhVZAoGBAJmWt+mm/iI6nic2PrXo\n1xKr624pRJLppABHpotcjk0j89gtiMJN7y+YaTKC4lk7TOtOGDxrx3DFcTcH/8pl\n7qcw83X38g0K6WfRgvF7fgTYQy/AO/xzFNSgRKjNMl4RevdutKJtvkZBblBi/VU8\nKiwltmgMXL7yLV46k+TzsQ6r\n-----END PRIVATE KEY-----\n",
  "client_email": "firebase-adminsdk-fq93j@rr2023-110aa.iam.gserviceaccount.com",
  "client_id": "103491203407990741234",
  "auth_uri": "https://accounts.google.com/o/oauth2/auth",
  "token_uri": "https://oauth2.googleapis.com/token",
  "auth_provider_x509_cert_url": "https://www.googleapis.com/oauth2/v1/certs",
  "client_x509_cert_url": "https://www.googleapis.com/robot/v1/metadata/x509/firebase-adminsdk-fq93j%40rr2023-110aa.iam.gserviceaccount.com",
  "universe_domain": "googleapis.com"
}
